<svg width="32" height="28" viewBox="0 0 32 28" fill="none" xmlns="http://www.w3.org/2000/svg">
<path d="M31.8033 5.01898C31.6312 4.79647 31.3607 4.66049 31.078 4.66049H7.62197L6.60161 0.692274C6.49097 0.284327 6.12217 0 5.70419 0H0.922013C0.417979 0 0 0.420309 0 0.927152C0 1.434 0.417979 1.8543 0.922013 1.8543H4.99116L6.01153 5.82252L9.62582 19.7916C9.73646 20.1996 10.093 20.4839 10.5232 20.4839H27.4637C27.8817 20.4839 28.2505 20.1996 28.3611 19.7916L31.9754 5.82252C32.0369 5.53819 31.9754 5.2415 31.8033 5.01898ZM14.494 18.6172H11.2363L10.5109 15.8234H14.494V18.6172ZM14.494 13.9691H10.0315L9.30618 11.1629H14.494V13.9691ZM14.494 9.30861H8.82674L8.10142 6.50243H14.494V9.30861ZM21.6489 18.6172H16.3381V15.8234H21.6489V18.6172ZM21.6489 13.9691H16.3381V11.1629H21.6489V13.9691ZM21.6489 9.30861H16.3381V6.51479H21.6489V9.30861ZM26.7507 18.6172H23.4929V15.8234H27.476L26.7507 18.6172ZM27.9554 13.9691H23.4929V11.1629H28.6808L27.9554 13.9691ZM29.1602 9.30861H23.4929V6.51479H29.8855L29.1602 9.30861Z" fill="black"/>
<path d="M12.9697 21.2256C11.1134 21.2256 9.60126 22.7461 9.60126 24.6128C9.60126 26.4795 11.1134 28 12.9697 28C14.826 28 16.3381 26.4795 16.3381 24.6128C16.3381 22.7461 14.826 21.2256 12.9697 21.2256ZM12.9697 26.1457C12.1337 26.1457 11.4453 25.4534 11.4453 24.6128C11.4453 23.7722 12.1337 23.0799 12.9697 23.0799C13.8056 23.0799 14.4941 23.7722 14.4941 24.6128C14.4941 25.4658 13.8056 26.1457 12.9697 26.1457Z" fill="black"/>
<path d="M25.0173 21.2256C23.161 21.2256 21.6489 22.7461 21.6489 24.6128C21.6489 26.4795 23.161 28 25.0173 28C26.8736 28 28.3857 26.4795 28.3857 24.6128C28.3857 22.7461 26.8736 21.2256 25.0173 21.2256ZM25.0173 26.1457C24.1813 26.1457 23.4929 25.4534 23.4929 24.6128C23.4929 23.7722 24.1813 23.0799 25.0173 23.0799C25.8532 23.0799 26.5417 23.7722 26.5417 24.6128C26.5417 25.4658 25.8532 26.1457 25.0173 26.1457Z" fill="black"/>
</svg>
